---------------------------------------------------------------------------------------------------------------------------------------------------------------------------------------------------------------------
---------------------------------------------------------------------------------------------------------------------------------------------------------------------------------------------------------------------
---------------------------------------------------------------------------------------------------------------------------------------------------------------------------------------------------------------------
-----------------------------------------------------------------------------------------------------------------------------------------------------------------------------------------------------------------|---
------------------------------------------------------------------------------------------------------------------------------------------------------------------------------------------------------------K----|---
------------------------#####--------K---------------------------------------------------------------------------------------------------------------------------------------------------------------------------|---
------------------------K--------------vv------------------------------------------------------------------------------------------------------K----------------------------------------<<-------------##--------|---
-------------------l---------------------------------------------------------------------------------------------------------------------------------------------------------------------------------------------|---
--------------------------------------------------------------------------------------M---M--H-------------V--------------------------------------K---------------------------O-M--------------------------------|---
-----------vv---###---------------------------------------------k---M--------------------------------------[]--*-----------------------------------------------------------------------------<<------------------|---
----------------------------------------------------------------#-----------------------------------#------pP----------------------------------------------------------------------------------------------------|---
--------------------------------Y-------------------------------#-----------------------------------#------pP---------------------------Y------------------------------------------------------------------------|---
--------------------------------Y----------------------------k--#-------------h--------h------------#------pP---------------------------Y-----------------------h-----h------------------------------------------#---
###########--------###---------###---------######-----################################################---################################------------##############################-----------------------------#####