-------------------------------------------------------------------------------------------------------------------------------------------------------------------------------------------------------
-------------------------------------------------------------------------------------------------------------------------------------------------------------------------------------------------------
-------------------------------------------------------------------------------------------------------------------------------------------------------------------------------------------------------
----------------------------------------M----------------------------------------------------------------------------------------------------------------------------------------------------------|---
-------------------------------------------------------ooooo--------------------------------V-----------------------------------------------------------------------K--------------------k---------|---
------------------------K------vv------->>-----vv--<<--#####--------------------------------[]-----------------###--------####---------<<--------------#####----------######---------######--------|---
-------------------K--------------------------------------------------K---------------------pP-------->>----------------------------------------->>------------------------------------------------|---
----------------------<<--------------------------------------------------------------------pP------------------------oo---------------------------------------------------------------------------|---
---------------------------------------------------------------------------------------V----pP------------------------BM---------------------------------------------------------------------------|---
-----------#####-------o------------------------------------------##--------------###--[]---pP----------------------------------------------<<-----------------------------------------------------|---
--------------------------<<-----------------------------------------------K-----------pP---pP-----------------------------------------------------------------------------------------------------|---
-------------------------------------------------------------Y-------------------------pP---pP--Y---------------------------------Y----------------------------------------------------------------|---
-------------------------------------------------------------Y-------------------------pP---pP--Y-------------o---o---------------Y----------------------------------------------------------------#---
#######------------------------------------------------########------------#######-----pP---##-###------------#---#---->>--------###-------------------------------------------------------------#-####