-----------------------------------------------------------------------------------------------------------------------------------------------------------------------------------------------------
-----------------------------------------------------------------------------------------------------------------------------------------------------------------------------------------------------
-----------------------------------------------------------------------------------------------------------------------------------------------------------------------------------------------------
---------------------------------------------------------------------------------------------------------------------------------------------------------------------------------------##--------|---
---------------------------------------------------------------------------------------------------------------------------------------------------------------------------------------##--------|---
---------------------+BBB---------------------?????-----------*BBB--------BBHBB------BBBB-----------------------------?BBB------------------------------------BBBBB---M----------------##--------|---
---------------------------------------------------------------------------------------------------------------------------------------------------------------------------------------##--------|---
---------------------------------------------------------------------------------------------------------------------------V-----------------------------------------------------------##--------|---
-----------------#---------------------V---------------------------V----------------------------V------------------V-------pP----------------------------------------------------------##--------|---
--------BMB----g##---?-----#-----------pP----kM????----------B-----pP---????--???---------------pP-----------------pP--V---pP-----------------------------O---K-----?----V--------BB---##--------|---
---------------###---------#-----------pP--------------------------pP---------------------------pP----------V------pP--pP--pP----------------------#---------------K-----pP------------##--------|---
--------------####---------##----------pP--------------------------pP---------------------------pP----------pP-----pP--pP--pP------------------K---#---------------------pP------------##--------|---
-------------#####----kk---##---gg-----pP-----------gg---k--gg-g---pP-------g-gg-------------g--pP--------g-pP--g--pP--pP--pP----------------------#-----gg--------------pPk---------Y-##--------#---
#####################################################################################----##########---##############################---##########--##################################################
