------------------------------------------------------------------------------------------------------------------------------------------------------
------------------------------------------------------------------------------------------------------------------------------------------------------
--------------------------------oo--------------------------------------------------------------------------------------------------------------------
------------------------------------g--g-----------------------------------------------------------------------------------------------------------|--
---------------------kooo----------#######-------------oooo-----------------------------oo--oo-----------------------------------------------------|--
---------------------#####-----------------------------####----------K--g-------oo---------------------------K-----oo--------------------##--------|--
---------------------------------------------oo------------------------######------------------------k--------------------->>>-----------##--------|--
---------------------------------------------------------------------------------------------------########----------------------------####--------|--
------------------------------#####----------------------------------------------vvv---------------------------------------------------####--------|--
-------------------########--------------------------------------###---------------------vvv-------------------####--####------------######--------|--
--------------------------------------------------<<<-M------------------------------------------------------------------------------######--------|--
----------------------------o----------------------------------------------------------------####------------------------------------######--------|--
-------------####----------###------------------------------------------------------------------------------ooo------------------k---######--------#--
###########----------------------------------####-----#####-#####-------------------------------------------###-------------##########################
