----------------------------------------------------------------------------------------------------------------------------------------------------------------
----------------------------------------------------------------------------------------------------------------------------------------------------------------
################################################################################################################################################################
########################-------------###################################--------#-------#--------#######-------------------#####--------------##----------------
########################-------------###################################--------#-------f--------#######-------------------#####--------------##----------------
-----------------------#-------------###################################-----------------------------------?--?--?----------------------------##----------------
-----------------------#------M------#-----------f----------f------f---------------------------------------------------------------------->>--------------------
###-------------------------------------------------------------------------------------------------------------------------------------------------------------
####-----------------------------------------------------------------------------------------------------------------------------------GG----A------------------
#####------------------------------#####################################----f-------f-------#-------------?--?--?----------------------GG----###----------------
#############--###########---#f#---#####################################################################------------####---#####bbbbbbbbbbbbb###----------------
#############--###########---###---#####################################################################------------####---#####-------------###----------------
#############--###########---###---#####################################################################------------####---#####-------------###----------------
#############--###########---###---#############################################################################################-------------###################
#############--###########---###---#############################################################################################-------------###################