----------------------------------------------------------------------------------------------------------------------------------------------------------------
----------------------------------------------------------------------------------------------------------------------------------------------------------------
################################################################################################################################################################
#####################-------------#######-----------------------###############################-----------------################--------------##----------------
#####################-------------#######-----------------------###############################-----------------################--------------##----------------
-------------------f----------M------f--------------------------####f#######f#######f##########-----------------------------------------------##----------------
-------------------------------------------------------------------------------------------------------------------------------------->>------------------------
###--------------------------------------------------------------------------------------------------------------#---#---#--------------------------------------
####------------------------------------------------------------------------------k------------------------------#---#---#-------------GG----A------------------
#####---------------------------------------f########f----------###########################f####-----f-----------#---#---#-------------GG----###----------------
#####################---##---##---#######----------------------#################################----###-###-####################bbbbbbbbbbbbb###----------------
#####################---##---##---#######---------------------##################################----###-###-####################-------------###----------------
#####################---##---##---#######--------------------###################################----###-###-####################-------------###----------------
#####################---##---##---#######-############------####################################----###-###-####################-------------###################
#####################---##---##---#######-############------####################################----###-###-####################-------------###################