--------------------------------------------------------------------------------------------------------------------------------------------------------------------------------------------------------------------------------------------------------------------------------------------------------------------------------
--------------------------------------------------------------------------------------------------------------------------------------------------------------------------------------------------------------------------------------------------------------------------------------------------------------------------------
################################################################################################################################################################################################################################################################################################################################
--------------------------------------------------------------------------------------------------------------------------------------------------------V---------------------------------------------------------------------------------------------------------------------------------######-------------###----------------
--------------------------------------------------------------------------------------------------------------------------------------------------------V---------------------------------------------------------------------------------------------------------------------------------######-------------###----------------
--------------------------------------------------------------------------------------------------------------------------------------------------------V----------------------------------------------------------------------------------------------------------------------------------------------------###----------------
----------------------------------------------------------------------------####------------------------------------------------------------------------[]----------------------------------------------------------V-----q-----------------------------------------------------------------------------------------------------
###------------------------------------------------------------------------------V--------[]------------------------------------------------------------pP--------------------------------------------------V-------[]--------------V-------------------------------------------------------------------------------------------
####-----------------------------------------------------------------------------[]-------pP------------------------------------------------------------pP--------------------------------------------------[]------pP--------------[]-----------------------------------------------------------------GG----A------------------
#####----------------------------------------------------------------------------pP-------pP------------------------------V-------------------V-------O-##--------------------------------------------------pP---q--pP--------------pP-----------------------------------------------------------------GG----###----------------
######-------------V-------------------------------V----------####---------######pP#######pP####-------------------V------[]--------V------K--[]-------------K-------------------------------------V--######pP######pP######----####pP##########################---V------V------------a--######bbbbbbbbbbbbb###----------------
######-------------[]------------------------------[]---------####---------######pP#######pP####-------------------[]-----pP--------[]-------KpP-----------K---------------------------------------[]-######pP######pP######----####pP##########################---[]-----[]--------------######-------------###----------------
######-------------pP------------------------------pP---g-gg--####---------######pP#######pP####-------------------pP-----pP----t-t-pP--------pP---------------------------------------------------pP-######pP######pP######----####pP##########################---pP-----pP-----h--------######-------------###----------------
######-----########pP##############################pP#############---->>---######pP#######pP#######################pP#####pP########pP########pP---################################################pP#######pP######pP######----####pP#############################pP#####pP#########-----######-------------###################
######-----########pP##############################pP#############---------######pP#######pP#######################pP#####pP########pP########pP---################################################pP#######pP######pP######----####pP#############################pP#####pP#########-----######-------------###################