-------------------------------------------------------------------------------------------------------------------------------------------------------------------------------------------------------------------------------------
-------------------------------------------------------------------------------------------------------------------------------------------------------------------------------------------------------------------------------------
---------------------------------------------------------------------------------------------M---------------------------------------------------------------------------------------------+-----------------------------------------
---------------------------------------------------------------------------------------------------------------------------------------------------------------------------------------------------------------------------------|---
---------------------------------------------------------------------------------------------------------------------------------------------------------------------------------------------------------------------------------|---
---------------------------------?-M-?----------------B*B-----------------------------------?----------------------------------BBBHBBBB--------------------------------------------------###--------------------------g##--------|---
------------------------------------------------------------------------------------------------------------------------------------------------------------------------------------------------------------K--------g###--------|---
---------------------------------------K---K--------------#######---------------------------------------------------------------------------------------------------------------------------------------------------g####--------|---
---------------------------------------------------------##-------------------------------------------------------------------------------------------------------------K---K---------------------------------------#####--------|---
-----------------------------K---K--K---#######---------###-----------------------------#######------------Y--------------------V-??BBB------M???------------------------------------------------------------------######--------|---
---------------##########################--------------####-----------------V------------------------------Y--------------------[]-------------K-----------Y--##----##-----##-----##-----------------K------------#######--------|---
--------------##--------------------------------------#####----V------V-----[]-----V---------------------####-------------------pP-------------------------Y-----------------------------------------------------########--------|---
-------------###-------------------------------------######----[]-----[]----pP-----[]------------>>>----------->>>-------#------pP-------------------------#----------------------------#-----------------------#########--------#---
################-------------------------------------######----pP-----pP----pP-----pP------------------------------------###################################----------------------------#############################################