--------------------------------------------------------------------------------------------------------------------------------------------------------------------------------------------------------------------------------------------------------------
--------------------------------------------------------------------------------------------------------------------------------------------------------------------------------------------------------------------------------------------------------------
##############################################################################################################################################################################################################################################################
################-----------------------------------------------###-------------------------------------------------------------------------------------------------------------------------------------------################---------------##----------------
################-----------------------------------------------###-------------------------------------------------------------------------------------------------------------------------------------------################---------------##----------------
---------------------------------------------------------------###--------------------------------------------------------------------------------------------------------------------------------------------------------------------------##----------------
----------------------------------------------################-###-###########---#############----############---#############----############---#############----############---#############----------------------------------------------------------------
###-------------------------------------------################-###-###########---#############----############---#############----############---#############----############---#############----------------------------------------------------------------
####------------------###########f------------################-###-###########-f-#############----############-f-#############----############-f-#############----############-f-#############-----------------------------------------GG--A------------------
####------------------#########------------f--################-----###########---#############-V--############---#############-V--############---#############-V--############---#############-V---------f-----------------------------GG--###----------------
####-#------##---#-V--#########-M-------------################--->>###########-----------------[]------------------------------[]------------------------------[]------------------------------[]------------#################bbbbbbbbbbbbb###----------------
####-#-----------#-[]-#########---------------################-----###########-----------------pP------------------------------pP------------------------------pP------------------------------pP------------#################-------------###----------------
####-#-#---------#-pP-#########---------------################-----###########-----------------pP------------------------------pP------------------------------pP------------------------------pP------------#################-------------###----------------
####-#-#---------#-pP-############-------#####################-----#################################################################################################################################-#-------#################-------------###################
####-#-#---------#-pP-############-------#####################-----#################################################################################################################################-#-------#################-------------###################