---------------------------------------------------------------------------------------------------------------------------------------------------------------------------------------------------------------------------------------
---------------------------------------------------------------------------------------------------------------------------------------------------------------------------------------------------------------------------------------
---------------------------------------------------------------------------------------------------------------------------------------------------------------------------------------------------------------------------------------
---------------------------------------------------------------------------------------------------------------------------------------------------------------------------------------------------------------------------------|-----
-------------------------------------------------------------------------oo------------------------------------------------------------------------------------------------------------------------------------------------------|-----
------------------------------------oooo---------------o-o-o------------o--o---------------------ooo--M-----ooo----------------------oooooo----------------------------------------------------------------------------##--------|-----
--------------------------------------------------------o-o------------------------------------------------------------------------------------------------------------------oooooo-----------------------------------###--------|-----
--------------------------------------------------------------------------------------------------------------------------------------------K------------------------------------------------------------------------####--------|-----
----------------------------------------------------K------------------------------------------------------------------------------------------------oooo-----------------------------------------------------------#####--------|-----
---------------------------------------k---------------------------------------k---------------k---#######--------------------------------------------------K------------------------------------------------------######--------|-----
------------####################################################----############----############---#-----#----------------###--#################---------------##########--##--##--##--############---------------#######--------|-----
-----------####----------------#---------------#---------------#----#----------#----#----------#---#-----#---------------------#---------------#---------------#--------#--------------#---------###-------------########--------|-----
----------#####----------------#---------------#---------------#----#----------#----#----------#---#-----#-------------k-------#---------------#--##########---#--------#--------------#---------####-----------#########--------#-----
#######-########---------------#---------------#---------------#----#----------#----#----------#---#-----#------########-------#---------------#--#--------#---#--------#--------------#--------#############--########################