---------------------------------------------------------------------------------------------------------------------------------------------------------------------------------
---------------------------------------------------------------------------------------------------------------------------------------------------------------------------------
B-----BBBBBBBBBBBBBBBBBBBBBBBBBMBBBBBBBBBBBBB-------------BBMMMMBBBBBBBBBBBBBBBBBBBBBBBBBBBBBBBBB----BBBBBBBBBBBBBBBBBBBBBBBBBBBBBBBB-----BBBBBBBBBBBBBBBB-------------BBB--[]BBB
B---------------------------------------BBBBB-----------BB-------------------------------------------BBBB---------------------------------BBBB------------------------------pPBBB
B---------------------------------------BBBBB--------HBB---------------------------------------------BBBB---------------------------------BBBB------------------------------pPBBB
B---------------------------------------BBBBB--------------------------------------------------------BBBB---V-----------------------------BBBB------------------------------pPBBB
B---------------------------------------BBBBB---------------------------------------------------------------[]--------------------------------------------------------------pPBBB
B---------------------------------------BOBBB-------?-------------------------------------------------------pP-----------V-----------------------------------<<<------------pPBBB
B--------------------------#####----V---BBBBB----V--------#####---------------------------vvv---------V-----pP-----------[]-----------------------------------------------zzzPBBB
B-------------------------######----[]-----BB----[]------######-------------------vvv-----------------[]---*BBB-V--------pP--V------------BOBB---------vvv----------------===PBBB
B--------------K---------#######----pP-----BB----pP-----#######-----------vvv-------------------------pP--------[]---V---pP--[]----V------BBB-------------------BBB-B--BBBBBBBBBB
B-----------------------########----pP-----BB----pP----########---vvv---------------------------------pP--------pP---[]--pP--pP----[]-----BB--------------------BBB-B--BBBBBBBBBB
B---------------#-----##########----pP-----gg----pPt--#########---------------------------------------pP--------pP---pP--pP--pP----pP-------k-kk---#------------BBB-B--BBBBBBBBBB
#################-----##########--##############################---------------------------------##########----###---##--##--##--###################---------<<<BBB-B--##########
