--------------------------------------------------------------------------------------------------------------------------------------------------------------------------------------------------------------------------------------------------------------------------------------------------------------------------
--------------------------------------------------------------------------------------------------------------------------------------------------------------------------------------------------------------------------------------------------------------------------------------------------------------------------
--------------------------------------------------------------------------------------------------------------------------------------------------------------------------------------------------------------------------------------------------------------------------------------------------------------------------
---------------------------------------------------------------------------------------------------------------------------------------------------------vv-----------------------------------------------------------------------------------------------------------------------------------------------------------|---
---------------------------------------------------------------------K-------------------------------------------------------------------------------------------------------------------------------------------o-o--------oo----------------------------------------------------------------K-----------------------|---
----------------------------------------####-----------------------------------------------------------------##------##------##------------------------------######----------------------------------------------<<--------####----------------------------------------###---##----------##------##---------#f#-------|---
----------------------------------------------------l-----------------------------------------------------------------------------------------------------------------------------------------------------------------------------------------------------------------------------------------------------------------|---
----------------------------------------------------------------------------------------------Y-------------------------------------Y---------------------------M-----------------------------------------------------------------------------------------------------------------------------------------------------|---
----------------------------------------------------------------------------------------------Y-----------------V---------V---------Y--------------------------------------------------V-----------------------------------------------------------------------oooooo--------------------------------##---------------|---
---------------------------------------------------------------------------------------------###----------------[]--------[]-------####------------------------------------------------[]-----------------------------<<---------------------------------------#######----------f----f--------------------------------|---
----------------------------------------------------------------------------------------------------------------pP--------pP----------------------------------####---------------------pP-----------------------------------------------------------------------------------------------------------------------------|---
----------------Y----------------------------Y----------------------Y-------------------------------------------pP--------pP-----------------------------------------------------------pP------Y-------------###--------------------Y---------------------------------------------------------------------------------|---
----------------Y----------------------------Y----------------------Y-------------------------------------------pP---V----pP-----------------------------------------------------------pP------Y---------------------------####-----Y---------------------------------------------------------------------------------#---
###########----###-------------------------#####------------------####------------------------------------------pP---[]---pP----------------------------------------##############-----pP-----###----------------------------------###--------------------------------------------------------------------------------####