---------------------------------------------------------------------------------------------------------------------------------------------------------------------------------------------------------------------------------------------------------------
---------------------------------------------------------------------------------------------------------------------------------------------------------------------------------------------------------------------------------------------------------------
############################################----------------------------#######################################################################################################################################################################################
########----------------------##############----------------------------########---------------------------------------------------------------------------#--------------#------------------------------------################--------------##----------------
########----------------------##############-----v---------v---------v--########---------------------------------------------------------------------------#--------------#------------------------------------################--------------##----------------
-----------#f################-##############----------------------------########-------------k---k----k----------------------------------------------------#--------------#------------------------------------------------------------------##----------------
----------###################-##############----------------------------########--f########-###-###-####-########################-------------------#####--f--##------##--f--###-------------------------------------------------------------------------------
##--------###################-##############----------------------------########----#######-###-###-####-########################-------------------#####-----##------##-----###-------------------------------------------------------------------------------
#############################-##############----------v---------v-------########----#######-###-###-####-########################-------------------#####-----##------##-----###----------##---------------------------------------------GG-A------------------
#############################-##############M---------------------------########----#######-###-###-####-########################-------------------############t--t--##########---------------------------------------------------------GG-###----------------
#############################-##############------------------------------########--#######-###-###-####-#######################------------------##############################--#####-------#####------------################bbbbbbbbbbbbb###----------------
#############################-------------------------------------------------------#######-###-###-####---#####################------------------##############################--------a----------------------################-------------###----------------
#############################--------------------v---------v---------v--------------#######-###-###-####---------t-t----t--t--------t-t--------t-t##############################-------------------------------################-------------###----------------
#############################--->>###########f--------------------------###################-###-###-############################################################################-----------------------#f#-----################-------------###################
#############################-----############--------------------------###################-###-###-############################################################################-------------------------------################-------------###################