---------------------------------------------------------------------------------------------------------------------------------------------------------------------------------------
---------------------------------------------------------------------------------------------------------------------------------------------------------------------------------------
---------------------------------------------------------------------------------------------------------------------------------------------------------------------------------------
-----------------------------------------------------------------------------------------------------------------------------------------------------------------------------------|---
-----------------h--------------------------------K-----------ooo---------------------------K--------------------------------------------------------------------------------------|---
--------------BBBBBBBBBBB------------M??????---------BBB?BBB?BBBB----BBBBBBBHBBBB#--------------K-----------------------+------------------------------------------------##--------|---
---------------------------------------------------------------------------------#------K-------------------------------K-----------------------------------------------###--------|---
---------------------------------------------------------------------------------#----------------------------------------V--------------------------------------------####--------|---
------------------h----------------------------------------V---------------------#-V--------------------------------------[]-------V---Vk-----------------------------#####--------|---
--------------BBBBBB*BBBB-----???M---B---------------------[]------B------------M#-[]--------------------M??--------------pP---V---[]--[]---------K------------------######--------|---
-----------------------------------------------------------pP---------------V----#-pP-----------------------------C-------pP---[]--pP--pP---------------------------#######--------|---
-----------------------------------------------------------pP---------------[]---#-pP----------------C------------c-------pP---pP--pP--pP----------------Y---------########--------|---
--------------------------------------kk-------------------pP---------------pP---#-pP-k--------------c-k-k--------C-------pP---pP--pP--pP----------------Y--------#########--------#---
#########################----############--------#################----------##################---###########################---##--################----###----##################---####