---------------------------------------------------------------------------------------------------------------------------------------------------------------------
---------------------------------------------------------------------------------------------------------------------------------------------------------------------
-----------------------oo-------------------------------------------------------ooo----------------------------------------------------------------------------------
--------------------------------------------------M-----------------------------###------------------------------------------------------------------oo-----------|--
--------------------------------------ooooooo----------<<---------------------------------------------------------------------------------------------------------|--
-----------------------<<---------->>-----------------------------<<oo----<<--------------------------------------->>------oo--###---------------------###--------|--
------------------------------------------------>>------------------------------------------------------------------------<<----------------vv--------------------|--
----------------------------------------->>---------------------------------------------------------------------------------------------vv--oo------vv------------|--
-------------------------------------------------------------------------------------###-------oooo---------------------------------------------vv----------------|--
----------------###-------#####-----------------------------#####-----<<-----<<-----------------------#####------------------<<---####----------------------------|--
--------------------------------------------------------------------------------#####-----------------------------------------------------------------------------|--
---------------------------------Y----------#####--------------------------------------------------------------Y--------------------------------------------------|--
---------------------------------Y-----------------------------------------------------------------------------Y--------------------------------------------------#--
###########--###---###----------###---###-----------------------------------------------###-####--###-------#####-----###------####------------------------##########
