----------------------------------------------------------------------------------------------------------------------------------------------------------------
----------------------------------------------------------------------------------------------------------------------------------------------------------------
################################################################################################################################################################
################-------M----------#################################################----------######----------------#############--------------##----------------
################----z-------------#################################################------^---######----------------#############--------------##----------------
----------------------------------#####################f###########################---------------------------------------------BBBBBB--------##----------------
----------------z-------------z---------------------------------------------------f---^----------------------z---z---------------------->>----------------------
###-------------------#F#----------------------------------------------------------------------------------------------------------z----------------------------
####--------------------------------------------------------------------------------------------------ooo--------------------------------GG--A------------------
#####-------------##-------##--------############f###########f###########f---------------------------------------------------------------GG--###----------------
################----------------##----------------------------------------------####--------f######---------#--##--#####--##--##bbbbbbbbbbbbb###----------------
################----------------##----------------------------------------------####--------#######----f----#--##--#####--##--##-------------###----------------
################----------------##----------------------------------------------####-----^--#######---ooo---#--##--#####--##--##-------------###----------------
################----------------###########f###########f###########f################--------#################--##--#############-------------###################
################----------------####################################################--^-----#################--##--#############-------------###################