70
XW
AX

44
XX
DT

28
XX
WD

29
AX
AC

13
XX
Vg

5
AX
TW

13
Vc
XW

9
AA
VD

2
AX
DD

28
AX
iX

11
WA
WA

21
CX
XD

17
WV
XX

11
PC
PC

4
DD
QC

3
VV
iX

13
XX
PP

7
WA
XX

8
DX
XW

11
XW
Xa

2
CX
XB

2
DD
PA

14
XA
XV

4
Xa
Xa

10
CD
CD

7
XX
PC

2
XD
MV

4
AA
WX

3
AA
XA

7
VX
AX

