------------------------------------------------------------------------------------------------------------------------------------------------------------------------------------------------
###################################################################################################################################################-----########################################
######-----------------------------------------------------------------------###-----------------------------------------------------------------##---------------------------##----------------
######-----------------------------------------------------------------------###-----------------------------------------------------------------##---------------------------##----------------
-----------------------------------------------------------------------------###----------------------------------------------------------------#-----------------------------##----------------
------------------######-#-#-#-#-#-##################f#####################--------------------###--####-###--#####f#############################-----------------------------------------------
###---------------######-#-#-#-#-#-###------###############################------------------#-#---------#--------------------------------------#-----------------------------------------------
####--------------######-#-#-#-#-#-###------###############################--------------##---#----------#--------------------------------------#------------------------GG--A------------------
#####-------------######-#-#-#-#-#-###------################f##############-------------------#----------#--------------------------------------#------------------------GG--###----------------
#######--##--###------------------------[]-----------------------------------###------##--#####-##########################f#####################--------####--##bbbbbbbbbbbbb###----------------
#######--##--###------------------------pP-----------------------------------###----------#-------------------------------------------------------------####--##-------------###----------------
#######--##--###------------------------pP-----------------------------------###----------#-------------------------------------------------------------####--##-----a-------###----------------
#######--##--###########################################################################--#----#################################################################-------------###################
#######--##--###########################################################################--#----#################################################################-------------###################