----------------------------------------------------------------------------------------------------------------------------------------------------------------
################################################################################################################################################################
########################-------------###################################--------#-------#--------#######-------------------#####--------------##----------------
########################-------------###################################--------f-------f--------#######-------------------#####--------------##----------------
-----------------------#-------------###################################-----------------------------------?--?--?----------------------------##----------------
-----------------------f------M------f-----------f----------f------f---------------------------------------------------------------------->>--------------------
###------------------------a-----a-------------------------------------------------------------------------------------------------z----------------------------
####-----------------------------------------------------------------------------------------------------------------------------------GG----A------------------
#####------------------------------#####################################----f-------f-------f-------------?--?--?----------------------GG----###----------------
#############--###########---#f#---#####################################################################------------####---#####bbbbbbbbbbbbb###----------------
#############--###########---###---#####################################################################------------####---#####-------------###----------------
#############--###########---###---#####################################################################------------####---#####-------------###----------------
#############--###########---###---#############################################################################################-------------###################
#############--###########---###---#############################################################################################-------------###################