----------------------------------------------------------------------------------------------------------------------------------------------------------------
################################################################################################################################################################
################-------M----------#################################################----------######----------------#############--------------##----------------
################------------------#################################################------^---######----------------#############--------------##----------------
----------------------------------#####################f###########################---------------------------------------------BBBBBB--------##----------------
----------------a-------------a---------------------------------------------------f---^------------------------------------------------->>----------------------
###-------------------###---------------------------------------------------------------------------------------------------------------------------------------
####--------------------------------------------------------------------------------------------------ooo--------------------------------GG--A------------------
#####-------------##-------##--------############f###########f###########f---------------------------------------------------------------GG--###----------------
################----------------##----------------------------------------------####--------f######---------#--##--#####--##--##bbbbbbbbbbbbb###----------------
################----------------##----------------------------------------------####--------#######----#----#--##--#####--##--##-------------###----------------
################----------------##----------------------------------------------####-----^--#######---ooo---#--##--#####--##--##-------------###----------------
################----------------####################################################--------#################--##--#############-------------###################
################----------------####################################################--^-----#################--##--#############-------------###################