--------------------------------------------------
--------------------------------------------------
---------------------------------------------+----
--------------------------------------------------
--------------------BBB----BBBH-------------------
-------#??M??#--------------------------BBBBBB----
-------#-----#---------------------------dD-------
-------#-----#------#--------------------{}-------
-------#k--k-#------#kk-------#----------X--------
-------#??-??#------#BBBBBBBBB#------------------?
--------------------------------------------------
-------------K------------------------------------
--------------------------------------V-----------
###############################----###[]----######
