--------------------------------------------------
--------------------------------------------------
--------------------------------------------------
--------------------------------------------------
--------------------------------------------------
--------------------------------------------------
--------------------------------------------------
--------------------------------------------------
----------------------------V---------------------
----------------------------[]--------------------
----------------------------pP--------------------
----------------------------pP--------------------
-------t-------g-gg----g-gg-pP----k-k-------------
#######################################-#-##-##-##