----------------------------------------------------------------------------------------------------
----------------------------------------------------------------------------------------------------
----------------------------------------------------------------------------------------------------
----------------------------------------------------------------------------------------------------
----------------------------------------------------------------------------------------------------
----------------------------------------------------------------------------------------------------
----------------------------------------------------------------------------------------------------
----------------------------------------------------------------------------------------------------
----------------------------V----------------------------o-----------V---+--------o----V---o-----V--
----------------------------[]---------------------------------------[]----V-----------[]--------[]-
----------------------------pP---------------------------------------pP----[]----------pP--------pP-
----------------------------pP---------------------------------------pP----pP----------pP--------pP-
-------t-------g-gg----g-gg-pP----k-k---------------k---------gg-g---pP--t-pP----------pP--------pP-
#######################################-#-##-##-##-#################################################