----
----
----
----
----
----
----
--?-
----
----
--g-
BBBB
----
----
----
BBBB
----
----
----
---B
----
----
----
BB?-
----
----
----
-M--
----
----
----
-BBB
----
----
----
B??B
----
----
----
##--
----
--|-
--|-
--|-
----
----
----
?---
----
----
----
BMB?
----
----
----
B---
----
----
----
--[]
----
----
----
-[]-
----
----
+---
----
----
---g
----
-BMB
----
----
----
--O-
----
----
----
B*--
----
----
----
-?--
----
----
----
--B-
----
----
----
-BB-
----
----
----
-#--
----
----
----
#---
----
----
----
---#
----
----
----
#--#
----
----
----
BB?B
---#
--##
-###
####
##--
##--
##--
##--
--|-
--|-
--|-
--|-
----
----
----
####
----
----
-g--
####
----
[]--
pP--
####
--[]
--pP
--pP
####
--pP
--pP
--pP
####
----
----
-gg-
####
-pP-
-pP-
-pP-
####
----
----
----
-###
----
----
---g
####
----
----
g---
####
----
----
--k-
####
----
----
gg-g
####
----
---#
--##
####
##--
##--
##--
####
##--
###-
####
####
--##
-###
####
####
#--#
#--#
#--#
#--#
#---
##--
###-
####
----
---[
---p
####
----
]---
P---
####
----
----
--gg
####
---#
]-##
P###
####
####
####
####
####
--|-
--|-
--#-
####
----
----
----
-+BB
----
----
----
--??
----
----
----
???-
----
----
----
--*B
----
----
----
BB--
----
----
----
--BB
----
----
----
HBB-
----
----
----
--?B
----
----
----
BBB-
----
----
----
--M-
----
---#
---#
---#
----
#---
#---
#---
----
-|--
-|--
-|--
----
----
----
BMB-
----
----
----
---g
----
----
-#--
##--
----
----
---V
---[
----
----
----
]---
----
----
----
--M?
----
----
k---
???-
----
----
----
-B--
----
----
----
????
----
----
V---
[]--
----
----
----
]--V
----
---V
---[
---p
----
----
]---
P---
----
----
----
--K-
----
----
----
-V--
---#
---#
---#
---#
#---
#---
#---
#---
-|--
-|--
-|--
-|--
----
----
--kk
####
---#
---#
---#
####
----
#---
#---
####
----
----
gg--
####
---p
---p
---p
####
P---
P---
P---
####
----
----
-k--
####
----
----
g-gg
####
pP--
pP--
pP--
###-
----
----
----
--##
----
----
--g-
####
V---
[]--
pP--
####
---p
---p
g--p
####
P--[
P--p
P--p
####
]--p
P--p
P--p
####
----
---K
----
####
---#
---#
---#
#--#
---K
----
----
####
-[]-
-pP-
-pPk
####
---#
-Y-#
-y-#
####
#---
#---
#---
####
-|--
-|--
-#--
####
----
----
----
---+
----
----
----
---*
----
----
----
BBMB
----
----
----
H---
----
----
k---
?B--
----
----
----
B?B-
----
----
----
-?-K
----
----
?--M
----
----
----
----
--KB
----
----
----
--V-
----
----
gg--
###-
----
----
----
-##-
----
----
-h--
BBBB
----
----
--BB
----
----
----
B---
----
----
--#-
g##-
###-
----
----
----
?B--
----
----
--k-
OBBB
--##
k###
####
####
-[]-
-pP-
-pP-
####
---p
---p
-g-p
####
--#-
--#-
--#-
--#-
-##-
-###
-###
-###
----
----
k---
####
pP--
pP--
pP--
####
----
---Y
---y
####
###-
###-
###-
###-
K--K
----
----
####
#---
#---
#---
##--
-k##
-###
####
####
----
----
----
*---
----
|---
|---
|---
----
----
----
--oo
---M
----
----
o---
----
----
----
---K
-B--
----
----
----
---o
----
----
----
ooo-
----
----
V---
----
----
---#
--##
-###
####
####
####
|---
|---
|---
|---
----
----
---k
####
----
----
-k-k
####
----
----
#---
####
----
----
k--g
####
----
----
g-g-
####
----
--#-
--#-
####
----
--#-
k-#-
###-
----
-#--
-#--
###-
----
----
---k
-###
----
----
-kk-
####
[]--
pP--
pP--
####
----
----
---#
####
|---
|---
#---
####
----
--l-
----
----
----
----
----
-?-?
----
----
----
-+--
----
----
----
-???
----
----
---o
--o-
----
----
o---
-o--
----
----
----
---?
--oo
----
----
----
oo--
----
----
----
----
----
-V--
-[]-
oooo
----
----
----
----
----
----
?MBB
----
----
----
-O--
----
----
----
###-
--#-
--#-
--#-
###-
----
----
----
-B*B
----
----
----
---V
----
----
----
--#+
---V
---[
---p
---#
----
]---
P---
#---
----
----
-g-g
####
---[
---p
---p
####
]---
P---
P---
####
--[]
--pP
--pP
--##
K---
----
----
####
#---
#---
#---
###-
----
--C-
--c-
####
--#-
--#-
-k#-
####
--V-
--[]
--pP
####
----
-C--
-c--
####
K--#
--##
-###
####
##--
----
----
####
----
----
ooo-
----
----
----
----
BM--
----
----
-oo-
HBB-
----
----
---h
-BBB
----
----
---k
BBBB
----
----
---o
---B
----
----
o---
BBB-
----
---|
---|
---|
----
C---
c---
##--
----
----
ooo-
BBBB
----
----
---#
#--#
----
##--
##--
##--
----
----
----
??-?
----
----
BBB-
----
----
----
----
K---
----
----
--h-
BBBB
----
----
----
---M
-K--
----
--#-
-##-
---|
---|
---|
---|
-##-
###-
###-
####
----
y---
Y---
#---
-K--
----
----
####
h###
####
####
####
--g#
--##
-###
####
-h--
----
----
####
----
----
oo--
###-
----
----
-ttt
####
----
?M--
----
###-
V---
[]--
pP--
##--
-##-
-##-
-##-
-##-
###-
###-
###-
####
---|
---|
---#
####
----
-l--
----
----
----
----
----
-MB-
----
----
----
-??-
----
----
----
O---
----
----
----
---o
----
----
----
oo--
----
-oo-
----
----
--#B
-##-
###+
###-
BB--
----
----
----
----
----
--oo
----
----
----
o---
----
----
----
BB-M
----
----
----
?---
----
----
-#BB
##--
##--
----
--o-
----
BO--
----
----
--#-
-##-
-###
-###
-###
-###
----
--##
####
####
-###
####
##--
----
##--
----
----
--##
####
####
####
###-
--#-
-##-
----
####
-BBB
----
----
##--
----
----
---B
----
----
----
BBBB
---#
----
----
----
#-##
----
-BBB
----
----
----
----
----
--BO
----
----
--g-
--BB
----
----
---t
--BB
----
----
--V-
--[]
---[
---p
---#
]---
]---
P---
#---
----
----
----
----
--BM
-V--
-[]-
-pP-
-##-
--V-
--[]
--pP
--pP
--[]
--pP
--pP
-B##
----
----
-BB-
----
----
----
----
V--#
----
----
----
#--B
----
----
--V-
V-[]
----
----
----
V---
K---
---#
V-##
[]##
---p
---p
k--p
####
----
----
--t-
####
-V--
-[]-
-pP-
####
]--V
P--[
P--p
####
--pP
]-pP
P-pP
####
----
----
----
-#-#
--#-
-##-
###-
###-
[]-#
pP-#
pP-#
####
#---
##--
##t-
####
[]pP
pPpP
pPpP
####
pP##
pP##
pP##
####
----
----
----
MBB-
----
----
h---
BB--
----
----
----
--+-
M---
----
----
----
----
-C--
-c--
B#OB
----
----
h---
BBBB
--BB
----
----
----
----
---#
--##
-###
t###
####
####
####
----
C---
c---
####
-C--
-c--
-C--
####
----
K---
----
####
---C
---c
---c
####
----
---C
---c
####
----
----
-h--
####
--#-
--#-
--#-
####
---C
---c
---C
####
----
Y--#
y-##
#-##
----
----
----
BBBO
----
----
-o--
----
----
----
-+--
---V
----
----
--o-
----
----
----
---o
]---
----
----
----
--#-
----
----
-BB*
----
----
----
BBBB
----
----
----
oo--
----
----
---V
---[
]--p
----
-#--
##--
##--
----
----
-oo-
----
---#
-#-#
-#-#
-#-#
----
----
---t
####
----
----
k---
###-
----
----
----
##-#
---[
---p
-t-p
####
V---
[]--
pP-k
####
K---
----
----
-##-
----
K---
----
#-##
----
---#
k--#
####
---[
---p
g--p
##-#
]--p
P--p
P--p
#--#
P--p
P--p
P--p
#--#
----
----
t---
####
----
----
g--g
####
##--
##--
##t-
####
----
#---
#-k-
####
-#-#
-#-#
-#-#
-#-#
--K-
l---
----
---#
----
----
----
--B+
----
----
----
-K--
--##
-###
-###
-###
----
----
--C-
-B#O
----
----
g#--
##--
----
----
--#-
--#-
--K-
----
----
##-#
----
----
----
#-#-
---K
----
----
##-#
----
-K--
----
####
CK--
c---
C---
####
----
C---
c--t
####
----
----
--C-
####
----
----
-t-t
####
C---
c---
c---
####
-K--
----
----
#-##
-V--
-[]-
-pP-
###-
---p
---p
---p
-###
----
--C-
--c-
#-#-
---#
-g##
-###
####
##--
##--
##-t
####
--C-
--c-
--C-
####
#-#-
#-#-
#-#-
#-#-
-##-
-##-
-##-
-###
----
----
----
-|--
----
----
---h
BBBB
----
-#--
----
----
-C--
-c--
-c--
####
----
----
--h-
####
--##
--##
--##
--##
----
#---
##--
##--
----
--K-
----
####
-pP-
-pP-
-pP-
-##-
----
h---
----
####
----
----
----
#BBB
----
----
-ooo
BBBB
----
----
oooo
BBBB
----
----
o-g-
BBBB
----
----
--k-
BBBB
----
----
---K
----
#---
#---
#--k
#BMB
----
----
-#--
B#--
----
----
----
-??!
----
----
----
??--
----
----
--+-
----
----
----
----
-*BB
K---
----
----
--#O
----
----
--kk
--??
----
----
----
!???
----
----
-#--
?#--
--K-
----
--V-
--[]
----
----
----
---[
--[]
--pP
--pP
-???
----
----
----
M---
----
----
---V
###[
----
----
----
]###
----
----
Vgg-
[]##
----
----
--#-
--##
---p
---p
---p
---#
P---
P---
P---
#--#
----
----
-k--
##--
----
---#
g-##
####
----
----
----
-?-M
----
----
----
--B*
-M--
----
----
?---
----
----
----
BBHB
---+
----
----
-###
----
----
----
--g#
----
---K
----
K---
----
--##
-##-
###-
----
####
----
----
----
#---
----
----
----
----
----
---Y
----
----
----
V-??
----
----
----
-!??
----
----
K---
----
K---
----
----
----
-g##
g###
####
####
####
----
----
----
#---
----
----
----
---#
--##
-###
-###
----
--V-
--[]
--pP
V---
[]--
pP--
pP--
----
----
->>>
----
---y
-###
----
----
----
#---
--->
----
----
----
>>--
----
----
----
-#--
-###
---Y
---y
---#
####
--##
----
----
----
##--
----
----
----
---#
----
----
----
----
----
----
-M??
----
----
--K-
----
----
----
----
?BBB
----
----
--oo
?BBB
----
----
o---
B---
----
----
----
HBBB
----
----
----
B#--
----
----
----
+---
----
----
----
*BBB
----
----
----
?!--
-#--
-#--
-#-V
M#-[
K---
--V-
--[]
--pP
----
----
---V
]--[
----
----
k---
]---
-#-p
-#-p
-#-p
####
P---
P---
P-k-
####
----
-C--
-c-k
####
---[
---p
---p
---#
P--p
P--p
P--p
####
----
-Y--
-y--
##--
---|
---|
---#
---#
----
---l
----
----
----
----
----
-V-V
----
----
----
---H
----
----
----
-g#?
----
----
B---
O---
----
---V
---[
?!-p
----
----
-?M-
----
-[][
-pPp
-???
----
][]-
PpP-
???-
----
-##-
###-
###?
###-
---V
---[
---p
####
----
----
V---
[]##
----
B---
B---
####
---?
----
----
####
????
----
----
####
?M--
----
----
####
----
----
-#--
-#--
----
----
---#
---#
----
----
--#-
####
V---
[]--
pP--
###-
[]--
pP--
pP--
##--
----
----
---#
#-##
----
--l-
----
B---
---K
----
----
----
----
----
----
C---
----
----
C---
c---
----
----
---#
BBB#
----
V---
[]--
pP--
----
----
----
??!-
----
----
-h--
???-
----
----
-#--
----
c--M
C---
c---
####
c---
c---
c---
####
*??-
----
----
####
----
----
--tt
####
----
---Y
---y
#--#
----
----
k-k-
####
----
----
--C-
-###
----
-O--
----
#-##
---#
----
----
####
####
----
----
####
----
----
---V
##-[
----
----
-V--
][]-
--V-
--[]
--pP
--##
-|--
-|--
-#--
-###
----
----
----
#+--
----
----
--K-
H---
dD--
dD--
dD--
dD--
--dD
--dD
--dD
--dD
---d
---{
---X
----
D--d
}--{
---X
----
D---
}---
----
----
----
--V-
--[]
-?pP
#---
#---
#---
#?--
--dD
--dD
--{}
--X-
----
----
--?-
----
-pP-
-pP-
-pP-
-pP-
----
----
-t--
####
{}--
X---
----
####
--{}
--X-
----
####
----
----
---K
####
---C
---c
--kC
####
----
----
kk--
####
----
----
--V-
##[]
----
----
--Vk
##[]
K---
---K
----
####
-###
-###
-###
####
-pP-
-pP-
-pP-
-###
----
----
----
???M
----
----
----
-vv-
####
-dD-
-dD-
-{}-
----
----
--#-
--#M
----
----
t-#-
BB#-
#-+-
#--K
#---
#BB*
----
----
-#kk
-#BB
----
----
---o
----
----
--h-
----
----
-[]-
-pP-
-pP-
?pP-
--dD
--dD
--dD
--{}
--dD
--dD
--dD
B-{}
#---
###-
#---
#---
-X--
----
----
----
--#p
-##p
-##p
]##p
P---
P---
P---
P---
--oo
----
----
####
----
----
-C--
##--
----
#---
##--
####
--X-
----
----
####
--X-
----
--V-
##[]
#---
#V--
#[]-
#pP-
----
----
->>-
----
---V
---[
---p
---p
--#p
]##p
P##p
P###
P##p
P##p
P##p
####
----
----
----
MBBB
-dD-
-{}-
-X--
----
----
----
---k
--##
dD--
dD--
{}--
X---
dD--
dD--
dD--
{}--
----
----
-###
----
----
----
####
----
----
C-V-
##[]
--pP
----
----
*---
----
----
----
--h-
????
----
----
----
h#--
----
----
--C-
--#-
X---
----
----
####
----
----
--#-
###-
----
----
---h
####
----
----
-V--
#[]-
---B
---d
---d
---{
B---
D---
D---
}---
####
-dD-
-dD-
-dD-
----
----
----
-MBB
----
----
----
BB!-
---X
----
--V-
--[]
----
----
----
?M??
----
----
----
?!?-
-dD-
-dD-
-dD-
-{}-
--K-
----
----
----
-dD-
-dD-
-dD-
-dD-
----
K---
----
---B
---B
--BB
-BBB
MBBB
----
----
---!
----
---d
---d
---d
---{
D---
D---
D---
}---
[]--
pP--
pP--
pP--
-X--
----
----
####
--#-
--#-
-K#-
###-
----
----
t-t-
####
-{}-
-X--
----
####
C---
c---
C---
####
----
----
h---
####
----
-#-#
-#-#
####
----
----
---V
###p
----
-h--
----
P###
----
----
C---
####
---X
----
-C--
##-#
-pP-
-pP-
-pP-
###-
--pP
--pP
--pP
--##
----
----
----
---v
----
----
----
v---
----
---l
----
###-
---v
----
----
----
v---
----
----
----
----
----
----
k---
----
----
--M-
----
----
----
-H--
----
----
----
----
]--*
----
----
--O-
----
----
----
M---
----
<<--
----
----
----
----
----
----
-<<-
----
Y---
y---
##--
----
Y---
y---
#---
----
----
----
??M?
----
----
----
?#--
----
----
BBH-
----
-+--
----
----
BB--
----
----
h---
????
----
----
----
-k--
---V
---[
---p
-BBB
----
]---
P---
BBBB
----
dD--
dD--
dD--
----
----
---k
---B
----
----
----
vv--
----
----
k--k
??-?
-#--
-#--
-#--
?#--
----
#---
#kk-
#BBB
----
----
--#-
BB#-
----
----
-h--
??!?
----
----
#-k-
#BBB
BBBB
----
-k--
BBBB
----
----
--h-
-BBB
----
----
-#BB
##--
K---
----
BBBB
----
----
----
BM--
----
----
----
---k
---#
----
---O
----
---k
----
----
--k-
--#-
-k--
-#--
-#--
-#--
----
-#--
-#--
####
----
BBBB
----
####
kk-#
BBB#
----
####
?!??
----
----
####
?---
----
----
####
----
----
-V--
#pP#
V-oo
[]--
pPoo
####
oooo
----
oooo
####
{}--
X---
----
[]##
---#
---#
---#
-###
---#
Y--#
y--#
####
---k
---#
---#
#--#
-#--
-#--
-#--
-#--
----
----
----
BHBB
----
----
----
BB*B
----
----
----
-??M
----
----
---g
-BBB
----
----
-g--
BBBB
----
--Vk
--[]
+-pP
----
----
----
BO--
----
----
-?--
----
---V
---[
---p
--??
----
]---
P---
????
----
----
----
?B?B
----
----
-BBB
----
----
---k
-BBB
----
----
----
----
--k-
K---
----
-V--
-[]-
g--#
##-#
##-#
##-#
----
-k--
-#--
##--
-[]-
-pP-
-pP-
-###
----
-B--
----
###-
K---
----
----
-#-#
----
--Y-
--y-
--#-
---#
---#
k--#
####
--K-
----
----
####
##-#
##-#
##-#
##-#
----
---+
----
---?
-[]-
-pP-
-pP-
!???
---d
---d
---{
---X
D---
D---
}---
----
-dD-
-{}-
-X--
---B
----
----
----
BB!B
---V
---[
---p
BBB#
----
]---
P---
###-
-V--
-[]-
-pP-
-pP-
-dD-
-dD-
-{}-
-X--
dD-d
dD-d
dD-d
dD-{
----
----
---g
---#
----
--V-
--[]
#-pP
pP--
pP--
pP--
pP--
{}-X
X---
----
####
-K--
----
----
---#
#-pP
#-pP
#-pP
####
----
----
----
-h--
-+--
----
----
----
K---
----
----
*B--
----
----
----
--!-
----
----
-K--
---V
-BMB
----
----
----
BBBB
----
----
--BB
BBBB
----
--h-
BBBB
BBBB
----
----
----
B---
----
----
--K-
----
---C
---c
--##
----
B---
----
----
!---
----
----
----
----
-???
----
----
--V-
--[]
--pP
????
--M-
----
----
----
]---
P---
P---
#---
----
----
-C--
####
----
----
h---
#BBB
----
----
C---
#--#
----
----
-t-k
####
-{}-
-X--
-g--
####
----
----
---C
####
-{}-
-X--
----
###-
----
----
-k--
###-
----
----
----
K--B
-#--
##--
##--
##--
##--
##-#
##-t
####
----
####
-gg-
####
----
####
----
####
----
####
g---
####
----
##--
----
####
----
----
K-K-
####
----
----
-K--
####
-C--
-c--
-Ckk
####
-dD-
-{}-
-X--
####
--Y-
--y-
--#-
###-
----
----
-k--
-#--
----
----
----
--C-
----
----
----
-C-M
----
----
----
--B?
----
----
----
---C
----
----
--C-
--c-
----
---C
---c
C--c
--c-
--c-
--c-
--c-
-c--
-c--
-C--
####
--V-
--[]
--pP
#-pP
--B-
--B-
--B-
####
---c
C--c
c--c
####
--c-
--c-
--C-
####
--C-
--c-
--c-
####
-#--
-#--
-#--
-###
O---
----
----
####
----
-C--
-c--
-#--
c--c
c--c
c--c
#--#
--c-
--c-
--c-
--#-
---|
---|
---#
-###
