41
AF
kF

62
JF
GG

97
FF
FQ

59
FF
JF

15
Fc
GC

17
FK
GG

5
Jf
rf

4
rE
fO

1
DF
AG

10
Ft
At

1
JF
mG

13
FE
hG

10
re
re

3
FF
JW

16
FF
vA

21
Fr
rr

3
Jf
rB

10
RQ
QF

3
rF
rr

2
xF
mG

29
QQ
FF

21
JF
FF

14
FF
FF

3
Fb
FA

5
FC
FD

7
FF
FP

1
FF
Fx

16
XX
FF

4
JB
rB

9
tF
Dh

15
FF
iJ

10
PF
FF

2
RF
pF

14
FJ
FJ

2
rF
rh

2
QQ
JF

8
FF
CI

2
Fk
Gu

3
AF
DG

3
JF
GF

