-------------------------------------------------------------------------------------------------------------------------------------------------------------------------------------------------
-------------------------------------------------------------------------------------------------------------------------------------------------------------------------------------------------
---------------------------------------------V---------------------------------------------------------------------------------------------------------------------------------------------------
---------------------------------------------pP----------------------------------------------------------------------------------------------------------------------------------------------|---
------------------------------------------K--pP------------------------------------------------------------------------------------------------------------------------------------V---------|---
--------------------------M-----------------###------------------------------------------------------------------------------------------------------------------------------------pP--------|---
---------------------------------------K-------------------------------------------------------------------------------------------------------------------K-------------------vv--pP--------|---
----------------------------------------------------------------------------------------------------l---------------------------------------K--------------------------------K-----pP--------|---
-----------------------------------------------------------------------------------------------------------------------------------k--------------------------vv-------------------pP--------|---
----------------------------------------------------------------------------------------------------------#---f---f------k----#######----#-----#######f------------vv--------------pP--------|---
----------#>>-------------------------------------------------#############---V--------------------------##----------######--------------##----------------------------------------pP--------|---
---------##-----------------######----------################------------------pP----------------------K-###----------######--------------###---------------------------------------pP--------|---
--------###-------------------------------------------------------------------pP-----------------------####----------######--------------###---------------------------###---------pP--------#---
###########----------------------------------------------------------------################################----------######--------------###---------------------------###---------##--------####