------------------------------------------------------------------------------------------------------------------------------------------------------------------------------------------------
------------------------------------------------------------------------------------------------------------------------------------------------------------------------------------------------
################################################################################################################################################################################################
------------------------------------------------------------------------------------------------------------------------------------------------------------------------------##----------------
------------------------------------------------------------------------------------------------------------------------------------------------------------------------------##----------------
-------------------------------#######--------------------###############-####-#---------#-########-------------------------f#########f###############------------------------##----------------
-----------------##-----------########----##############----------------------------------------------############-#######----------------------------------------------------------------------
#####------------##------------#######----###############---------------------M------------------------------------########---------------------------------------------------------------------
######-----------##------------#######----###############################-####-#-----V----V------------------------#########-------------------------------------------GG----A------------------
#######----------##----#####---#######-V---------------------------------a-----------[]---[]----????---###########-#########----####################f#-----------------GG----###----------------
########---------------#####-----------[]--------------------------------------------pP---pP------------------------------------------------------------------##bbbbbbbbbbbbb###----------------
########---------------#####-----------pP-----------------###-###########-####-#-----pP---pP------------------------------------------------------------------##-------------###----------------
########---------------#####-----------pP--------------------------------------------pP---pP------------------------------------------------------------------##-----a-------###----------------
########---########----#####---##########################################-#########--##---##--##################-###########---#######################---##---##-------------###################
########---########----#####---##########################################-#########--##---##--##################-###########---#######################---##---##-------------###################