--------------------------------------------------------------------------------------------------------------------------------------------------------------------------------------------------------------
--------------------------------------------------------------------------------------------------------------------------------------------------------------------------------------------------------------
---------------------------------------------+-----------------------------------------------------------------------------V----------------------------------------------------------------------------------
---------------------------------------------------------------------------------------------------------------------------pP-------------------------------pP--------------------------------------------|---
--------------------BBB----BBBH---------------------h----------------------------------------------------------------------pP-------------------------------pP-----------------k--------------------------|---
-------#??M??#--------------------------BBBBBB----???????----------------k-----------------------------------------------BBBBBBB---------------K-----K------pP-----------------B--------------------vv----|---
-------#-----#---------------------------pP-----------------------------BBBB----------------------------------------------------------------K---------------pP-----------------------------------k--------|---
-------#-----#------#--------------------pP-----------------------------------------------------------------------------------------------------------------pP-----------------O-----------------#--------|---
-------#k--k-#------#kk-------#----------V-----------h--------------#-k--k------------------------------------------------h--h-----------#BBBBBBBBBBBM------pP---------k----------------------k--#--------|---
-------#??-??#------#BBBBBBBBB#------------------?????M??-----------#BBBBBBB---#-----------------------V-----------------BBBBBBB--------##------------------pP---??----#-------k--------------#--#--------|---
----------------------------------------------------------------------------kk-#-----------------------pP-------?M???------------------###--V-oooooo--------pP---------#-------#-----------k--#--#--------|---
-------------K---------------------------------------------------#--BBBBBBBBBBB#-----------------------pP-----------------------------####--pP--------------V----------#----Y--#-----------#--#--#--------|---
--------------------------------------V--------------------------#-------------------------------k-k---pP--------------------V-------#####--pPoooooo-------------------#----Y--#-----------#--#--#--------#---
###############################----###pP----#################################################################################pP#######################-----#pP#####--############-#######--#--#--#-----#######
