------------------------------------------------------------------------------------------------------------------------------------------------------------------------------------------------------------------------
------------------------------------------------------------------------------------------------------------------------------------------------------------------------------------------------------------------------
------------------------------------------------------------------------------------------------------------------------------------------------------------------------------------------------------------------------
--------------------------------------------------------------------------------------------------------------------------------------------------------------------------------------------------------------------|---
--------------------------------------------------------------------------------------------------------------------------------------------------------------------------------------------------------------------|---
--------------------------------ooo------------------------------------------------M-----------------------------------------------------------------------------------------------------------K--###----###------K-|---
-----------------------------------------------------------------------------------K--------------------------------------------------------------------------------------------------------------------------------|---
--------------------------------------------------------------------------------------------------------------------------------------------------------------------------------------------------------------------|---
-------------------oooo--------------------------------------------------------------------------------oooo----oooo---------------------------------------------------------------oooo---------#--------------------|---
-----------------------------------------k-------------------------------------------------------------K-----------------------M-------###----------------K---------------------------------------------------------|---
-------##--#-----------------K-----#########------------K-----------###-------##------------------------------------------------------------------------###-----------###---##----------###-------------------------|---
------###--#-----------------------#-------#----------------------------------------------------k-----------k-------------------------------------------------------------------------------------------------------|---
-----####--#----###############----#-------#---################-----------##---------###-----#########################-----------k------------###---##---------###--------------#######-----------------------------#---
#########--#----#-------------#----#-------#---#--------------#------------------------------#-------#---------------#-----#######----------------------------------------------#-----#-----------------------------####