---------------------------------------------------------------------------------------------------------------------------------------------------------------------------------
---------------------------------------------------------------------------------------------------------------------------------------------------------------------------------
BB---BBBBBBBBBBBMBBBBBBBBBBBBBBBBBBBBBBBBBBBBBBBBBB----------------------BBBBBBBBBBBBBBBBBBBBBBBBBBBBBBBBBBBBBBBBBBBBBBBBBBBBBBBBBBB-----BBBBBBBBBBBBBBBBBBBBBBBBBBBBBBBBB---pPBB
BB-----------------------------------------------------------------------BBBBBBBBBBBBBBBBBBBBBBBBBBB----------------BBBBBBBBBBBBBBBB-----BBBBBBBBBBBBBBBBBBBBBBBBBBBB--------pPBB
BB-----------------------------------------------------------------------BBBBBBBBBBBBBBBBBBBBBBBBBBB----------------BBBBBBBBBBBBBBBB--v--BBBBBBBBBBBBBBBBBBBBBBBBBBBB--------pPBB
BB-----------------------------------------------------------------------BBBBBBBBBBBBBBBBBBBBBBBBBBB----------##-vv-BBBBBBBBBBBBBBBB-----BBBBBBBBBBBBBBBBBBBBBBBBBBBB--------pPBB
BB-----------------------------------------------------------------------BBBBBBBBBBBBBBBBBBBBBBBBBBB---------###----------pP-------------------------------------------------pPBB
BB-----------------------------------------------------------------------BBBBBBBBBBBBBBBBBBBBBBBBBBB--------####----------pP-------------------------------------------------pPBB
BB-----------------------------------------vv----------------------------BBBBBBBBBBBBBBBBBBBBBBBBBBB-------#####----------V------------------------------------------------zzpPBB
BB------------------------------------vv------------vv-BBBBBBBBMBBBB-----BBBBBBBBBBBBBBBBBBBBBBBBBBB------######----BBBBBBBBBB*BBBBB------------------------------------V--==pPBB
BB-------------------------------------------------------------------------------------------------------#######----BBBBBBBBBBBBBBBB-----------#--------------C-BBBBB---pPBBBBBBB
BB--------------Y---------vv----vv----------------------------------------------------------------------########----------------------v-------##--------------c-BBBBB---pPBBBBBBB
BB--------------Y-------------------------------------------------------------------V--V--V--V---------#########------------V-----V----------###------h-----C-c-BBBBB---pPBBBBBBB
######################------------------------####-----############---->>###########pP#pP#pP#pP#################----########pP####pP-----################---c-c-#####---pP#######