----------------------------------------------------------------------------------------------------------------------------------------------------------------------------------------
----------------------------------------------------------------------------------------------------------------------------------------------------------------------------------------
----------------------------------------------------------------------------------------------------------------------------------------------------------------------------------------
-----------------------------------------------------K------------------------------------------------------------------------------------------------------------------------------|---
----------------------------------------------------------------------------------oo---------------------------------o-o---------ooooo-----vvv----ooo-------------------------------|---
--------------------------------------<<<-----------------------------------------------------------------------<<<-------------#######----------------------K---K---------#--------|---
-------------------------vvvoo------------------->>>----------------K---------------------------------------------------------------------------------------------------------------|---
------------------------------>>>---------------------------------------------------------------------------------------------------------------------------------------------------|---
------------------------------------------------------------------------ooooo-------------------------------------------------------------------------------------------------------|---
--------------------------------------------<<<-------#####------------#######-------M--------------####---vvv-------<<<----------------------------------------------#-------------|---
------------------------------------------------------------------------------------------------------------------------------------------------------------------------------------|---
---------------------Y--------------------------------------------------------Y-----------------------------------------------------------------------------------------------------|---
---------------------Y--------------------------------------------------------Y--------------------------------------------------------k--------------------------------------------#---
###########--------####------------------------------------------------------###->>>--------######-------------------------################---------##############------------------####