---------------------------------------------------------------------------------------------------------------------------------------------------------------------------
---------------------------------------------------------------------------------------------------------------------------------------------------------------------------
B-----BBBBBBBBBBBBBBBBBBBBBBBBBBBBBBBBBBBBBBBBBBBBBBBBBBBBBBBBBBBBBBBBBBBBBBBBBBBBBBBBBBB+BBBBBBBBBBBBBBBBBBBBBBBBBBBBBBBBBBBBBBBBBBBBBBBB------------------------BBBBBB[]B
B-----------------------------------------------------BB--BBBBBB--BBBB------BBBB----------------------------------------------------------------------------------------pPB
B-----------------------------------------------------BB--BBBBBB--BBBB--g---BBBB------------------------------------------------------------vvv-------------------------pPB
B----------------------------------------oooo-------BB--------BB---B----BB----------oooooo-----------------------------------------------------------------^^^----------pPB
B---------------------------------------------------BB--------BB---B----BB----------------------------------------------------------------------------------------------pPB
B--------------------------------------B-BBBB-*-----BB--------BB---B----BB----------BBBBBB------------------------------------------------------------------------------pPB
B----------------------------O---------BoB--BoB-----BB----ooooBB---BoM--BO--g-------BBBBBB-------------------V-----------------------------------BBBBBM---------------zzpPB
B---------M????--------#-#-------------BBB--BBB-----BBBB--BBBBBB---BBB--BB--BBBB-----------------------V-----[]-------------------------##----------------------------==pPB
B--------------------#-#-#-#---#----------------------BB-------------------g---------------------------[]----pP----V------BB----------g###--vvv-----------------BBBBBBBBBBB
B------------------#-#-#-#-#---#-#--------------------BB-----------------------------------------------pP----pP----[]-----BB---------g####----------------------BBBBBBBBBBB
B-------------gg-#-#-#-#-#-#-g-#-#--------kk--------k-------g--g--------------------------------g-gg---pP----pP--g-pP-----BB---------#####----------k-----------BBBBBBBBBBB
################################################################################---#####################################--##--############-------########--^^^--###########