39
----
----
----
###-

20
--##
-###
####
####

45
----
----
-#--
----

15
----
----
----
]--*

68
----
----
----
--#-

2
][]-
PpP-
???-
----

152
----
----
----
----

2
----
----
----
C---

21
----
----
----
---#

26
P---
P---
P---
####

14
###-
###-
###-
####

1
---[
---p
---#
]---

1
-g##
g###
####
####

6
##--
----
----
--##

131
----
----
----
####

12
----
----
----
-###

9
----
----
g---
####

11
-[]-
-pP-
-pP-
####

23
----
----
----
????

14
-#--
-#--
-#--
-#--

57
----
----
----
BBBB

9
----
----
BBBB
----

13
----
---#
k--#
####

2
----
----
---h
BBBB

1
-#--
-#--
-#-V
M#-[

7
--#-
--#-
--#-
####

9
---#
--##
-###
####

20
----
----
----
##--

6
---|
---|
---#
---#

8
----
----
----
-B--

