------------------------------------------------------------------------------------------------------------------------------------------------------------------------------------------------
------------------------------------------------------------------------------------------------------------------------------------------------------------------------------------------------
------------------------------------------------------------------------------------------------------------------------------------------------------------------------------------------------
-----------------------------------------------------------------------------------B?B------------------------------------------------------------------------------------------------##--------
--------------------------------------------------------------------------------------------------------------------------------------------------------------------------------------##--------
-----------------------------------------------------------------------------------------------------------------------------------------------------pP-------------------------------##--------
-----------------------------------------------------------------------------------------------------------------------------------------------------pP----------------------------#--##--------
----------------------------------------------------------------------------------#####-----------------------------------------------------#?BB-----##---------------------------##--##--------
-------------------------------------pP-----pP------------------------------------#--------------------------#------------------------------#------------------------------------###--##--------
-------------------------------------pP-----pP------------------------------------#--------------------------#------------------------------#---------------pP------------------####------------
-------------------------------------pP-----pP------------------------------------#--------------------------#------------------------------#---------------pP-----------------#####------------
##########################################--#########################################----##################--####################################---############################################