---------------------------------------------------------------------------------------------------------------------------------------------------------------------------------------------------------------------------------------------------------------------------------------------------------------------------------------------------------------------------------
---------------------------------------------------------------------------------------------------------------------------------------------------------------------------------------------------------------------------------------------------------------------------------------------------------------------------------------------------------------------------------
---------------------------------------------------------------------------------------------------------------------------------------------------------------------------------------------------------------------------------------------------------------------------------------------------------------------------------------------------------------------------------
---------------------------------------------------------------------------------------------------------------------------------------------------BBBB?BBB------------------------------------------------------------------------------------------------------------------------------------------------------------------------------------------------------------##--------
-----------------------------------------------------------------------------------------------------------------------------------------------------------------------------------------------------------------------------------------------------------------------------------------------------------------------------------------------------------------------##--------
---------------------------------------------------------------------------------------------------------------------------------------------------------------------------------------------------------------------------------------------------------------------------------#-----------------------------------------------------------------------------------#-##--------
-------------------------------------------------------------------------?-------------------------------------------------------------------------------------------------------BB?BBBBB------------------------------------------------------pP-------------------------------##-----------------------------------------------------------------------------------#-##--------
----------------------------pP---------------------------------------pP----------------pP--------pP-----------------------------------------------#----?----#------------------------------------------------------------------------------pP--pP------------------------------###---------------------------------------------------------------------------------#-#-##--------
----------------------------pP---------------------------------------pP----pP----------pP--------pP----------------------------------pP-----------#---------#--------------------------------------------------------------------------pP--pP--pP-----------------------------####---------------------------------------------------------------pP----------------#-#-##--------
----------------------------pP---------------------------------------pP----pP----------pP--------pP---------pP-----------------------pP-----------#---------#----------------------------------------------#---------------------------pP--pP--pP----------------------------#####----------------------#---#------------------------------------pP---------pP---#-#-#-##--------
----------------------------pP---------------------------------------pP----pP----------pP--------pP---------pP-----------------------pP-----------#---------#----------------------------------------------#---------------------------pP--pP--pP---------------------------######----------------------#---#------------------------------------pP---------pP---#-#-#-##--------
#######################################-#-##-##-##-###############################################################################################################-#-##-#-##-#################-#-#-###################------##########-##--##--############################################---##---################-----#----###################################-#-#-#-##########