-------------------------------------------------------------------------------------------------------------------------------------------------------------------------------------------------
-------------------------------------------------------------------------------------------------------------------------------------------------------------------------------------------------
-------------------------------------------------------------------------------------------------------------------------------------------------------------------------------------------------
----------------------BBBBB?--------------------------------------------------?BB------------------------------BBBBBBB?---------------------------BBBBB--------------BBBB--------------##--------
--------------------------------------------------------------------------------------------------------------------------------------------------------------------------------------###--------
--------------------------------------------------------------##----------------------------------------------------------------------------------------------------------------------###--------
-------------------------------------------------------------###------------------BBB-----------------------------------------------------------------------------------------------#-###--------
--------####----------BBBBBB------------##----------------#--###-------?????-?---------------------------------BBBBBBBB---------------------BBB------------------?-----------------##-###--------
-------##-------------------------------##------pP-------##--###----------------------------------------------------------#--------------------------------------------------------##-###--------
------###-----------------------------#####-----pP------###--###--------------------------------------------pP------------#-----------??------------------------------pP---------#-##-###--------
-----####----------------------------######-----pP-----####--###--------------------------------------------pP------------#-------------------------------------------pP--------##-##-###--------
###################---#####################################--########################----###############################--###############-------###################---##--########-##-###########