10
AC
BD

11
CA
CA

9
AC
GA

6
CC
EB

7
AC
GE

8
CC
EG

9
CA
GA

5
CC
AD

13
CC
EE

9
CC
AC

5
DG
FC

4
CG
CE

2
CC
ED

8
CF
CC

6
FC
EC

4
CC
GC

3
CA
CC

8
CG
GG

3
CF
AC

3
AG
AG

3
FG
DG

2
EC
EA

5
AD
AD

2
EE
GG

3
GG
CE

2
GG
FF

2
GC
GE

2
CC
CH

2
CF
EC

4
CC
DD

2
CA
AA

2
FB
DG

5
CC
FC

1
FA
CA

2
EC
GC

3
FF
CA

1
CC
CB

2
ED
EE

1
FH
DA

3
CC
DC

